project.vcd
$date
     Feb 08, 2023       07:51:37
$end

$version
 SystemC 2.3.4-Accellera --- Jan 26 2023 07:19:56
$end

$timescale
     1 ps
$end

$scope module SystemC $end
$var wire    1  aaaaa  clk       $end
$var wire    1  aaaab  bus_clk       $end
$var wire   14  aaaac  pc [13:0]  $end
$var wire    5  aaaad  aluop [4:0]  $end
$var wire    8  aaaae  R0 [7:0]  $end
$var wire    8  aaaaf  R1 [7:0]  $end
$var wire    8  aaaag  R2 [7:0]  $end
$var wire    8  aaaah  R3 [7:0]  $end
$var wire    8  aaaai  R4 [7:0]  $end
$var wire    8  aaaaj  R5 [7:0]  $end
$var wire    8  aaaak  R6 [7:0]  $end
$var wire    8  aaaal  R7 [7:0]  $end
$upscope $end
$enddefinitions  $end

$comment
All initial values are dumped below at time 0 sec = 0 timescale units.
$end

$dumpvars
1aaaaa
0aaaab
b0 aaaac
b0 aaaad
b0 aaaae
b0 aaaaf
b0 aaaag
b0 aaaah
b0 aaaai
b0 aaaaj
b0 aaaak
b0 aaaal
$end

#1000
1aaaab

#2000
0aaaab

#3000
1aaaab

#4000
0aaaaa
0aaaab

#5000
1aaaab

#6000
0aaaab

#7000
1aaaab

#8000
1aaaaa
0aaaab

#9000
1aaaab

#10000
0aaaab

#11000
1aaaab

#12000
0aaaaa
0aaaab

#13000
1aaaab

#14000
0aaaab

#15000
1aaaab

#16000
1aaaaa
0aaaab

#17000
1aaaab

#18000
0aaaab

#19000
1aaaab

#20000
0aaaaa
0aaaab

#21000
1aaaab

#22000
0aaaab

#23000
1aaaab

#24000
1aaaaa
0aaaab

#25000
1aaaab
b1 aaaac

#26000
0aaaab

#27000
1aaaab

#28000
0aaaaa
0aaaab

#29000
1aaaab

#30000
0aaaab

#31000
1aaaab

#32000
1aaaaa
0aaaab

#33000
1aaaab
b10 aaaac
b111 aaaad

#34000
0aaaab

#35000
1aaaab

#36000
0aaaaa
0aaaab

#37000
1aaaab

#38000
0aaaab

#39000
1aaaab

#40000
1aaaaa
0aaaab

#41000
1aaaab
b11 aaaac
b1 aaaad

#42000
0aaaab

#43000
1aaaab

#44000
0aaaaa
0aaaab

#45000
1aaaab

#46000
0aaaab

#47000
1aaaab

#48000
1aaaaa
0aaaab

#49000
1aaaab
b100 aaaac
b0 aaaad

#50000
0aaaab

#51000
1aaaab

#52000
0aaaaa
0aaaab

#53000
1aaaab

#54000
0aaaab

#55000
1aaaab

#56000
1aaaaa
0aaaab
b111 aaaae

#57000
1aaaab
b101 aaaac

#58000
0aaaab

#59000
1aaaab

#60000
0aaaaa
0aaaab

#61000
1aaaab

#62000
0aaaab

#63000
1aaaab

#64000
1aaaaa
0aaaab
b1 aaaaf

#65000
1aaaab
b110 aaaac

#66000
0aaaab

#67000
1aaaab

#68000
0aaaaa
0aaaab

#69000
1aaaab

#70000
0aaaab

#71000
1aaaab

#72000
1aaaaa
0aaaab

#73000
1aaaab
b111 aaaac

#74000
0aaaab

#75000
1aaaab

#76000
0aaaaa
0aaaab

#77000
1aaaab

#78000
0aaaab

#79000
1aaaab

#80000
1aaaaa
0aaaab

#81000
1aaaab
b1000 aaaac

#82000
0aaaab

#83000
1aaaab

#84000
0aaaaa
0aaaab

#85000
1aaaab

#86000
0aaaab

#87000
1aaaab

#88000
1aaaaa
0aaaab

#89000
1aaaab
b1001 aaaac

#90000
0aaaab

#91000
1aaaab

#92000
0aaaaa
0aaaab

#93000
1aaaab

#94000
0aaaab

#95000
1aaaab

#96000
1aaaaa
0aaaab

#97000
1aaaab
b1010 aaaac

#98000
0aaaab

#99000
1aaaab

#100000
0aaaaa
0aaaab

#101000
1aaaab

#102000
0aaaab

#103000
1aaaab

#104000
1aaaaa
0aaaab
b111 aaaaj

#105000
1aaaab
b1011 aaaac

#106000
0aaaab

#107000
1aaaab

#108000
0aaaaa
0aaaab

#109000
1aaaab

#110000
0aaaab

#111000
1aaaab

#112000
1aaaaa
0aaaab

#113000
1aaaab
b1100 aaaac

#114000
0aaaab

#115000
1aaaab

#116000
0aaaaa
0aaaab

#117000
1aaaab

#118000
0aaaab

#119000
1aaaab

#120000
1aaaaa
0aaaab

#121000
1aaaab
b1101 aaaac

#122000
0aaaab

#123000
1aaaab

#124000
0aaaaa
0aaaab

#125000
1aaaab

#126000
0aaaab

#127000
1aaaab

#128000
1aaaaa
0aaaab

#129000
1aaaab
b1110 aaaac

#130000
0aaaab

#131000
1aaaab

#132000
0aaaaa
0aaaab

#133000
1aaaab

#134000
0aaaab

#135000
1aaaab

#136000
1aaaaa
0aaaab

#137000
1aaaab
b1111 aaaac

#138000
0aaaab

#139000
1aaaab

#140000
0aaaaa
0aaaab

#141000
1aaaab

#142000
0aaaab

#143000
1aaaab

#144000
1aaaaa
0aaaab

#145000
1aaaab
b10000 aaaac

#146000
0aaaab

#147000
1aaaab

#148000
0aaaaa
0aaaab

#149000
1aaaab

#150000
0aaaab

#151000
1aaaab

#152000
1aaaaa
0aaaab

#153000
1aaaab
b10001 aaaac

#154000
0aaaab

#155000
1aaaab

#156000
0aaaaa
0aaaab

#157000
1aaaab

#158000
0aaaab

#159000
1aaaab

#160000
1aaaaa
0aaaab

#161000
1aaaab
b10010 aaaac

#162000
0aaaab

#163000
1aaaab

#164000
0aaaaa
0aaaab

#165000
1aaaab

#166000
0aaaab

#167000
1aaaab

#168000
1aaaaa
0aaaab

#169000
1aaaab
b10011 aaaac

#170000
0aaaab

#171000
1aaaab

#172000
0aaaaa
0aaaab

#173000
1aaaab

#174000
0aaaab

#175000
1aaaab

#176000
1aaaaa
0aaaab

#177000
1aaaab
b10100 aaaac

#178000
0aaaab

#179000
1aaaab

#180000
0aaaaa
0aaaab

#181000
1aaaab

#182000
0aaaab

#183000
1aaaab

#184000
1aaaaa
0aaaab

#185000
1aaaab
b10101 aaaac

#186000
0aaaab

#187000
1aaaab

#188000
0aaaaa
0aaaab

#189000
1aaaab

#190000
0aaaab

#191000
1aaaab

#192000
1aaaaa
0aaaab

#193000
1aaaab
b10110 aaaac

#194000
0aaaab

#195000
1aaaab

#196000
0aaaaa
0aaaab

#197000
1aaaab

#198000
0aaaab

#199000
1aaaab

#200000
1aaaaa
0aaaab

#201000
1aaaab
b10111 aaaac

#202000
0aaaab

#203000
1aaaab

#204000
0aaaaa
0aaaab

#205000
1aaaab

#206000
0aaaab

#207000
1aaaab

#208000
1aaaaa
0aaaab

#209000
1aaaab
b11000 aaaac

#210000
0aaaab

#211000
1aaaab

#212000
0aaaaa
0aaaab

#213000
1aaaab

#214000
0aaaab

#215000
1aaaab

#216000
1aaaaa
0aaaab

#217000
1aaaab
b11001 aaaac

#218000
0aaaab

#219000
1aaaab

#220000
0aaaaa
0aaaab

#221000
1aaaab

#222000
0aaaab

#223000
1aaaab

#224000
1aaaaa
0aaaab

#225000
1aaaab
b11010 aaaac

#226000
0aaaab

#227000
1aaaab

#228000
0aaaaa
0aaaab

#229000
1aaaab

#230000
0aaaab

#231000
1aaaab

#232000
1aaaaa
0aaaab

#233000
1aaaab
b11011 aaaac

#234000
0aaaab

#235000
1aaaab

#236000
0aaaaa
0aaaab

#237000
1aaaab

#238000
0aaaab

#239000
1aaaab

#240000
1aaaaa
0aaaab

#241000
1aaaab
b11100 aaaac

#242000
0aaaab

#243000
1aaaab

#244000
0aaaaa
0aaaab

#245000
1aaaab

#246000
0aaaab

#247000
1aaaab

#248000
1aaaaa
0aaaab

#249000
1aaaab
b11101 aaaac

#250000
0aaaab

#251000
1aaaab

#252000
0aaaaa
0aaaab

#253000
1aaaab

#254000
0aaaab

#255000
1aaaab

#256000
1aaaaa
0aaaab

#257000
1aaaab
b11110 aaaac

#258000
0aaaab

#259000
1aaaab

#260000
0aaaaa
0aaaab

#261000
1aaaab

#262000
0aaaab

#263000
1aaaab

#264000
1aaaaa
0aaaab

#265000
1aaaab
b11111 aaaac

#266000
0aaaab

#267000
1aaaab

#268000
0aaaaa
0aaaab

#269000
1aaaab

#270000
0aaaab

#271000
1aaaab

#272000
1aaaaa
0aaaab

#273000
1aaaab
b100000 aaaac

#274000
0aaaab

#275000
1aaaab

#276000
0aaaaa
0aaaab

#277000
1aaaab

#278000
0aaaab

#279000
1aaaab

#280000
1aaaaa
0aaaab

#281000
1aaaab
b100001 aaaac

#282000
0aaaab

#283000
1aaaab

#284000
0aaaaa
0aaaab

#285000
1aaaab

#286000
0aaaab

#287000
1aaaab

#288000
1aaaaa
0aaaab

#289000
1aaaab
b100010 aaaac

#290000
0aaaab

#291000
1aaaab

#292000
0aaaaa
0aaaab

#293000
1aaaab

#294000
0aaaab

#295000
1aaaab

#296000
1aaaaa
0aaaab

#297000
1aaaab
b100011 aaaac

#298000
0aaaab

#299000
1aaaab

#300000
0aaaaa
0aaaab

#301000
1aaaab

#302000
0aaaab

#303000
1aaaab

#304000
1aaaaa
0aaaab

#305000
1aaaab
b100100 aaaac

#306000
0aaaab

#307000
1aaaab

#308000
0aaaaa
0aaaab

#309000
1aaaab

#310000
0aaaab

#311000
1aaaab

#312000
1aaaaa
0aaaab

#313000
1aaaab
b100101 aaaac

