project.vcd
$date
     Feb 08, 2023       07:55:58
$end

$version
 SystemC 2.3.4-Accellera --- Jan 26 2023 07:19:56
$end

$timescale
     1 ps
$end

$scope module SystemC $end
$var wire    1  aaaaa  clk       $end
$var wire    1  aaaab  bus_clk       $end
$var wire   14  aaaac  pc [13:0]  $end
$var wire    5  aaaad  aluop [4:0]  $end
$var wire    8  aaaae  R0 [7:0]  $end
$var wire    8  aaaaf  R1 [7:0]  $end
$var wire    8  aaaag  R2 [7:0]  $end
$var wire    8  aaaah  R3 [7:0]  $end
$var wire    8  aaaai  R4 [7:0]  $end
$var wire    8  aaaaj  R5 [7:0]  $end
$var wire    8  aaaak  R6 [7:0]  $end
$var wire    8  aaaal  R7 [7:0]  $end
$upscope $end
$enddefinitions  $end

$comment
All initial values are dumped below at time 0 sec = 0 timescale units.
$end

$dumpvars
1aaaaa
0aaaab
b0 aaaac
b0 aaaad
b0 aaaae
b0 aaaaf
b0 aaaag
b0 aaaah
b0 aaaai
b0 aaaaj
b0 aaaak
b0 aaaal
$end

#1000
1aaaab

#2000
0aaaab

#3000
1aaaab

#4000
0aaaaa
0aaaab

#5000
1aaaab

#6000
0aaaab

#7000
1aaaab

#8000
1aaaaa
0aaaab

#9000
1aaaab

#10000
0aaaab

#11000
1aaaab

#12000
0aaaaa
0aaaab

#13000
1aaaab

#14000
0aaaab

#15000
1aaaab

#16000
1aaaaa
0aaaab

#17000
1aaaab

#18000
0aaaab

#19000
1aaaab

#20000
0aaaaa
0aaaab

#21000
1aaaab

#22000
0aaaab

#23000
1aaaab

#24000
1aaaaa
0aaaab

#25000
1aaaab
b1 aaaac

#26000
0aaaab

#27000
1aaaab

#28000
0aaaaa
0aaaab

#29000
1aaaab

#30000
0aaaab

#31000
1aaaab

#32000
1aaaaa
0aaaab

#33000
1aaaab
b10 aaaac
b111 aaaad

#34000
0aaaab

#35000
1aaaab

#36000
0aaaaa
0aaaab

#37000
1aaaab

#38000
0aaaab

#39000
1aaaab

#40000
1aaaaa
0aaaab

#41000
1aaaab
b11 aaaac
b1 aaaad

#42000
0aaaab

#43000
1aaaab

#44000
0aaaaa
0aaaab

#45000
1aaaab

#46000
0aaaab

#47000
1aaaab

#48000
1aaaaa
0aaaab

#49000
1aaaab
b100 aaaac
b0 aaaad

#50000
0aaaab

#51000
1aaaab

#52000
0aaaaa
0aaaab

#53000
1aaaab

#54000
0aaaab

#55000
1aaaab

#56000
1aaaaa
0aaaab
b111 aaaae

#57000
1aaaab
b101 aaaac

#58000
0aaaab

#59000
1aaaab

#60000
0aaaaa
0aaaab

#61000
1aaaab

#62000
0aaaab

#63000
1aaaab

#64000
1aaaaa
0aaaab
b1 aaaaf

#65000
1aaaab
b110 aaaac

#66000
0aaaab

#67000
1aaaab

#68000
0aaaaa
0aaaab

#69000
1aaaab

#70000
0aaaab

#71000
1aaaab

#72000
1aaaaa
0aaaab

#73000
1aaaab
b111 aaaac
b100 aaaad

#74000
0aaaab

#75000
1aaaab

#76000
0aaaaa
0aaaab

#77000
1aaaab

#78000
0aaaab

#79000
1aaaab

#80000
1aaaaa
0aaaab

#81000
1aaaab
b1000 aaaac
b0 aaaad

#82000
0aaaab

#83000
1aaaab

#84000
0aaaaa
0aaaab

#85000
1aaaab

#86000
0aaaab

#87000
1aaaab

#88000
1aaaaa
0aaaab

#89000
1aaaab
b1001 aaaac

#90000
0aaaab

#91000
1aaaab

#92000
0aaaaa
0aaaab

#93000
1aaaab

#94000
0aaaab

#95000
1aaaab

#96000
1aaaaa
0aaaab
b110 aaaah

#97000
1aaaab
b1010 aaaac

#98000
0aaaab

#99000
1aaaab

#100000
0aaaaa
0aaaab

#101000
1aaaab

#102000
0aaaab

#103000
1aaaab

#104000
1aaaaa
0aaaab

#105000
1aaaab
b1011 aaaac
b11 aaaad

#106000
0aaaab

#107000
1aaaab

#108000
0aaaaa
0aaaab

#109000
1aaaab

#110000
0aaaab

#111000
1aaaab

#112000
1aaaaa
0aaaab

#113000
1aaaab
b1100 aaaac
b0 aaaad

#114000
0aaaab

#115000
1aaaab

#116000
0aaaaa
0aaaab

#117000
1aaaab

#118000
0aaaab

#119000
1aaaab

#120000
1aaaaa
0aaaab

#121000
1aaaab
b1101 aaaac

#122000
0aaaab

#123000
1aaaab

#124000
0aaaaa
0aaaab

#125000
1aaaab

#126000
0aaaab

#127000
1aaaab

#128000
1aaaaa
0aaaab
b1000 aaaai

#129000
1aaaab
b1110 aaaac

#130000
0aaaab

#131000
1aaaab

#132000
0aaaaa
0aaaab

#133000
1aaaab

#134000
0aaaab

#135000
1aaaab

#136000
1aaaaa
0aaaab

#137000
1aaaab
b1111 aaaac
b10010 aaaad

#138000
0aaaab

#139000
1aaaab

#140000
0aaaaa
0aaaab

#141000
1aaaab

#142000
0aaaab

#143000
1aaaab

#144000
1aaaaa
0aaaab

#145000
1aaaab
b10000 aaaac
b0 aaaad

#146000
0aaaab

#147000
1aaaab

#148000
0aaaaa
0aaaab

#149000
1aaaab

#150000
0aaaab

#151000
1aaaab

#152000
1aaaaa
0aaaab

#153000
1aaaab
b10001 aaaac

#154000
0aaaab

#155000
1aaaab

#156000
0aaaaa
0aaaab

#157000
1aaaab

#158000
0aaaab

#159000
1aaaab

#160000
1aaaaa
0aaaab
b10 aaaai

#161000
1aaaab
b10010 aaaac

#162000
0aaaab

#163000
1aaaab

#164000
0aaaaa
0aaaab

#165000
1aaaab

#166000
0aaaab

#167000
1aaaab

#168000
1aaaaa
0aaaab

#169000
1aaaab
b10011 aaaac

#170000
0aaaab

#171000
1aaaab

#172000
0aaaaa
0aaaab

#173000
1aaaab

#174000
0aaaab

#175000
1aaaab

#176000
1aaaaa
0aaaab
b111 aaaaj

#177000
1aaaab
b10100 aaaac

